+0.953212082 +0.008176031 +0.000519497 -0.001500435 -0.000009668 -0.000294896 -0.000431556 +0.007192009 +0.001902776 -0.002086342 +0.001349673 +0.004173112 -0.000600115 +0.003148681 -0.000753571 +0.000000000 -0.000461443 +0.001365120 +0.001067171 +0.006488719 -0.000792927 -0.007916558 -0.000000000 -0.000000000 -0.000000000
+0.972193658 +0.003570295 +0.000002249 -0.000438161 +0.000087345 +0.000143593 +0.000026245 +0.006904984 +0.000956351 -0.001812314 +0.000996925 +0.002126303 -0.000034034 +0.001722618 -0.001016039 +0.000000000 +0.000977918 +0.001748630 +0.000407342 +0.007180203 -0.000331643 -0.004115216 -0.000000000 -0.000000000 -0.000000000
+0.999760449 +0.004423691 -0.000161705 +0.003457192 -0.000066946 +0.000358069 -0.000017489 -0.016681762 -0.002032399 -0.003018657 -0.003258151 +0.002186012 +0.000109297 +0.002917903 +0.003015673 +0.000000000 +0.001003544 +0.003340580 +0.000828833 +0.004595346 -0.000373452 -0.009808122 -0.000000000 -0.000000000 -0.000000000
+0.972894788 +0.007944267 -0.000068541 +0.000700390 +0.000188834 +0.002081518 -0.000131045 -0.004088994 -0.000538304 -0.006674501 -0.001667144 +0.002563195 -0.000051038 +0.006918402 +0.001242984 +0.000000000 +0.001357400 +0.015314017 +0.003064376 +0.011299679 -0.001229314 -0.018995218 -0.000000000 -0.000000000 -0.000000000
+0.991715670 +0.004146523 +0.000099098 +0.002239403 -0.000164438 +0.000404471 -0.000044849 -0.012360789 -0.001570618 -0.000873129 -0.002360754 +0.001791007 +0.000139111 +0.001585430 +0.002158789 -0.000000000 +0.000472428 -0.001293214 +0.003250165 +0.004969517 -0.000285886 -0.007550139 -0.000000000 -0.000000000 -0.000000000
+0.971626818 +0.004565780 -0.000112025 +0.001076314 -0.000119511 +0.000168355 -0.000099265 -0.007314453 -0.000913252 +0.000323904 -0.001218642 +0.002002365 +0.000066824 +0.000086299 +0.001268820 -0.000000000 -0.000060260 -0.000425800 +0.001252642 +0.004440899 -0.000093051 -0.002546781 -0.000000000 -0.000000000 -0.000000000
+0.869007468 +0.008016001 -0.000013269 -0.000198982 +0.000033261 +0.000137472 +0.000058808 +0.002109359 +0.000267113 -0.001259153 +0.000284723 +0.003271450 -0.000139459 +0.000570344 -0.000180182 +0.000000000 +0.000580726 -0.000524930 +0.002938070 +0.006304696 -0.000110820 -0.001487332 -0.000000000 -0.000000000 -0.000000000
